<?xml version="1.0" standalone="no"?> 
<!DOCTYPE svg PUBLIC "-//W3C//DTD SVG 1.1//EN" "http://www.w3.org/Graphics/SVG/1.1/DTD/svg11.dtd" >
<svg xmlns="http://www.w3.org/2000/svg">
<defs>
  <font id="custom-icons" horiz-adv-x="492">
    <font-face font-family="custom-icons"
      units-per-em="1000" ascent="1000"
      descent="0" />
    <missing-glyph horiz-adv-x="0" />
    <glyph glyph-name="audit"
      unicode="&#xEA01;"
      horiz-adv-x="1000.0000000000001" d="M658.9921052631579 904.6052631578946C527.4903508771929 904.6052631578946 420.5043859649124 797.619298245614 420.5043859649124 666.1192982456141C420.5043859649124 636.7684210526315 425.7833333333334 608.1017543859648 436.1657894736843 580.9473684210526L436.6587719298247 579.6438596491228C446.5149122807017 584.078947368421 457.1991228070175 586.6228070175439 468.2026315789474 586.6228070175439C488.569298245614 586.6228070175439 508.0921052631579 578.5298245614035 522.4815789473683 564.1421052631579L557.0149122807018 529.6087719298246C571.4026315789473 515.219298245614 579.4956140350877 495.6964912280702 579.4956140350877 475.3298245614035V469.1122807017543C579.4956140350877 460.1298245614034 577.7938596491227 451.3210526315789 574.7570175438597 442.9736842105263C601.6429824561403 432.8298245614035 629.9745614035087 427.6315789473684 658.9921052631579 427.6315789473684C790.4921052631579 427.6315789473684 897.4780701754386 534.617543859649 897.4780701754386 666.1192982456141C897.4780701754386 797.619298245614 790.4921052631579 904.6052631578946 658.9921052631579 904.6052631578946zM213.7131578947368 332.2666666666667L309.0903508771931 427.6438596491228L420.3622807017545 316.3719298245614L324.9850877192983 220.9947368421052L213.7131578947368 332.2666666666667zM706.688596491228 777.4122807017544H674.890350877193V809.2105263157895H643.0921052631578V777.4122807017544H611.2938596491227C593.7570175438595 777.4122807017544 579.4956140350877 763.1508771929824 579.4956140350877 745.6140350877192V682.0175438596491C579.4956140350877 664.4807017543859 593.7570175438595 650.219298245614 611.2938596491227 650.219298245614H706.688596491228V586.6228070175439H611.2938596491227V618.421052631579H579.4956140350877V586.6228070175439C579.4956140350877 569.0859649122806 593.7570175438595 554.8245614035088 611.2938596491227 554.8245614035088H643.0921052631578V523.0263157894736H674.890350877193V554.8245614035088H706.688596491228C724.2254385964912 554.8245614035088 738.4868421052631 569.0859649122806 738.4868421052631 586.6228070175439V650.219298245614C738.4868421052631 667.7561403508771 724.2254385964912 682.0175438596491 706.688596491228 682.0175438596491H611.2938596491227V745.6140350877192H706.688596491228V713.8157894736842H738.4868421052631V745.6140350877192C738.4868421052631 763.1508771929824 724.2254385964912 777.4122807017544 706.688596491228 777.4122807017544zM658.9921052631579 1000C474.8798245614036 1000 325.109649122807 850.2303508771929 325.109649122807 666.1192982456141C325.109649122807 596.019298245614 346.9236842105264 530.9754385964911 383.9833333333334 477.1894736842105L333.0587719298246 426.2649122807018L309.2271929824562 450.0964912280702L35.0619298245614 177.1087719298245C17.048245614035 159.0789473684211 7.1271929824561 135.1350877192982 7.1271929824561 109.6491228070175C7.1271929824561 84.1631578947367 17.048245614035 60.2192982456139 35.0619298245614 42.1894736842105C53.0756140350877 24.159649122807 77.0356140350877 14.2543859649122 102.5219298245614 14.2543859649122C128.0082456140351 14.2543859649122 151.9522807017544 24.1754385964912 169.9973684210526 42.2210526315788L442.9535087719298 316.3701754385965L419.1377192982457 340.1859649122806L470.0622807017544 391.1105263157895C523.848245614035 354.0508771929824 588.8921052631579 332.2368421052631 658.9921052631579 332.2368421052631C843.1026315789474 332.2368421052631 992.872807017544 482.0070175438595 992.872807017544 666.1192982456141C992.872807017544 850.2303508771929 843.1026315789474 1000 658.9921052631579 1000zM524.1342105263158 396.1982456140351C469.028947368421 423.8473684210526 423.3815789473685 467.6017543859649 393.8412280701754 521.5631578947368L425.1780701754386 552.9C448.169298245614 575.8912280701754 488.2657894736842 575.8912280701754 511.2570175438596 552.9L545.790350877193 518.3684210526316C557.269298245614 506.8736842105263 563.5956140350877 491.5771929824561 563.5956140350877 475.3298245614035V469.1122807017543C563.5956140350877 456.0280701754385 559.2728070175438 443.0543859649123 551.4184210526315 432.5912280701754L524.1342105263158 396.1982456140351zM147.5005263157894 64.6701754385964C122.6978947368421 39.8684210526316 82.3459649122806 39.8684210526316 57.5591228070175 64.6701754385964C32.7724561403508 89.4736842105263 32.7566666666666 129.8245614035087 57.5433333333333 154.59649122807L261.4026315789474 357.580701754386L350.4692982456141 268.5140350877193L147.5005263157894 64.6701754385964zM372.8868421052632 291.0421052631579L283.9149122807019 380.0140350877193L309.1780701754386 405.1824561403509L398.0394736842105 316.3210526315788L372.8868421052632 291.0421052631579zM396.6552631578948 362.6684210526315L355.5412280701755 403.7824561403509L403.4289473684211 451.6719298245614C415.9254385964913 436.8052631578948 429.6780701754386 423.0526315789473 444.5429824561404 410.5561403508772L396.6552631578948 362.6684210526315zM658.9921052631579 364.0350877192982C622.0728070175439 364.0350877192982 586.8412280701755 371.0140350877192 554.1201754385964 383.1929824561404L576.8570175438597 413.5140350877193C588.8131578947368 429.4596491228069 595.3956140350878 449.2070175438596 595.3956140350878 469.1122807017543V475.3298245614035C595.3956140350878 500.0842105263158 585.7605263157894 523.359649122807 568.2552631578947 540.8491228070175L533.7219298245614 575.3824561403509C516.2324561403508 592.8877192982455 492.9570175438596 602.5228070175439 468.2026315789474 602.5228070175439C443.4464912280702 602.5228070175439 420.171052631579 592.8877192982455 402.6815789473685 575.3824561403509L379.4219298245615 552.121052631579C365.0008771929826 587.3228070175438 356.9078947368422 625.7824561403509 356.9078947368422 666.1192982456141C356.9078947368422 832.6935087719298 492.4166666666667 968.201754385965 658.9921052631579 968.201754385965C825.5657894736843 968.201754385965 961.0745614035088 832.6935087719298 961.0745614035088 666.1192982456141C961.0745614035088 499.5438596491228 825.5657894736843 364.0350877192982 658.9921052631579 364.0350877192982zM468.2061403508773 538.9263157894736C464.1359649122807 538.9263157894736 460.0657894736842 537.3666666666666 456.9657894736843 534.2666666666667C450.7482456140351 528.0508771929824 450.7482456140351 517.9859649122807 456.9657894736843 511.7859649122807C460.0657894736842 508.6859649122807 464.1359649122807 507.1263157894736 468.2061403508773 507.1263157894736C472.2763157894738 507.1263157894736 476.3464912280702 508.6859649122807 479.4464912280702 511.7859649122807C485.6622807017544 518.0017543859649 485.6622807017544 528.0666666666666 479.4464912280702 534.2666666666667C476.3464912280702 537.3666666666666 472.2763157894738 538.9263157894736 468.2061403508773 538.9263157894736zM515.9026315789473 491.2280701754386C511.8324561403509 491.2280701754386 507.7622807017544 489.6701754385965 504.6622807017544 486.5701754385965C498.4464912280702 480.3526315789474 498.4464912280702 470.2894736842105 504.6622807017544 464.0877192982456C507.7622807017544 460.9877192982456 511.8324561403509 459.4298245614035 515.9026315789473 459.4298245614035C519.9728070175438 459.4298245614035 524.0429824561403 460.9877192982456 527.1447368421052 464.0877192982456C533.3605263157895 470.3052631578947 533.3605263157895 480.3684210526316 527.1447368421052 486.5701754385965C524.0429824561403 489.6701754385965 519.9728070175438 491.2280701754386 515.9026315789473 491.2280701754386z" />
    <glyph glyph-name="checked"
      unicode="&#xEA02;"
      horiz-adv-x="1000.0000000000001" d="M847.1858323329157 902.7740049130002L347.1843718691308 402.8835396968662L152.8229304497936 597.1836416372382L-1e-13 444.3636321150144L347.1872927967005 97.2259950869998L1000.0000000000002 749.9510744632066z" />
    <glyph glyph-name="facebook"
      unicode="&#xEA03;"
      horiz-adv-x="625" d="M562.46390625 951.4650625L432.78765625 951.660125C287.10078125 951.660125 192.9514062500001 861.1025 192.9514062500001 720.94V614.5625H62.56765625C51.30096875 614.5625 42.17734375 605.999375 42.17734375 595.436875V441.308125C42.17734375 430.745625 51.31134375 422.191875 62.56765625 422.191875H192.9514062500001V33.2750000000001C192.9514062500001 22.7125 202.0751562500001 14.1625 213.34140625 14.1625H383.45515625C394.7220312500001 14.1625 403.84578125 22.725 403.84578125 33.2750000000001V422.191875H556.2945312500001C567.56140625 422.191875 576.6851562500001 430.745625 576.6851562500001 441.308125L576.7476562500001 595.436875C576.7476562500001 600.50875 574.59390625 605.365625 570.77578125 608.955C566.95765625 612.54375 561.75640625 614.5625 556.3464062500001 614.5625H403.84578125V704.74C403.84578125 748.083125 414.8626562500001 770.0862500000001 475.08703125 770.0862500000001L562.4426562500001 770.115625C573.6995312500001 770.115625 582.82265625 778.67875 582.82265625 789.23125V932.34875C582.82265625 942.8920625 573.70953125 951.4455625 562.46390625 951.4650625z" />
    <glyph glyph-name="fax"
      unicode="&#xEA04;"
      horiz-adv-x="1071.4285714285716" d="M269.0535714285716 200V0H802.389285714286V200V333.3328571428572H269.0535714285716V200zM335.7200000000002 266.6642857142857H735.7178571428573V200H335.7200000000002V266.6642857142857zM335.7200000000002 133.3357142857143H735.7178571428573V66.6642857142856H335.7200000000002V133.3357142857143zM802.389285714286 800V1000H269.0535714285716V800V666.6664285714286H802.389285714286V800zM935.7178571428574 800.0007142857143H869.0464285714287V666.6678571428572V600.0007142857143H202.382142857143V666.6678571428572V800.0007142857143H135.7157142857145C69.0487857142859 800.0007142857143 2.382142857143 733.3342857142857 2.382142857143 666.6678571428572V333.3342857142858C2.382142857143 266.6642857142857 69.0487857142859 200 135.7157142857145 200H202.382142857143V333.3342857142858V400.0007142857143H869.0464285714287V333.3342857142858V200H935.7178571428574C1002.382142857143 200 1069.0464285714286 266.6642857142857 1069.0464285714286 333.3342857142858V666.6678571428572C1069.0464285714286 733.3342857142857 1002.382142857143 800.0007142857143 935.7178571428574 800.0007142857143z" />
    <glyph glyph-name="left"
      unicode="&#xEA05;"
      horiz-adv-x="1000.0000000000001" d="M403.6747967479677 499.7886178861788L777.7723577235774 873.9024390243902C788.0731707317075 884.1788617886178 793.739837398374 897.9186991869918 793.739837398374 912.5691056910568C793.739837398374 927.2276422764228 788.0731707317075 940.959349593496 777.7723577235774 951.2520325203252L744.9918699186994 984.0162601626016C734.7073170731708 994.3252032520326 720.959349593496 1000 706.3089430894311 1000S677.9268292682927 994.3252032520326 667.6341463414635 984.0162601626016L222.2113821138213 538.6016260162601C211.8780487804879 528.2764227642276 206.2195121951221 514.479674796748 206.2601626016261 499.8130081300812C206.2195121951221 485.0813008130081 211.8699186991871 471.30081300813 222.2113821138213 460.9674796747967L667.219512195122 15.9837398373984C677.5121951219514 5.6747967479674 691.2439024390244 0 705.9024390243903 0C720.5528455284555 0 734.2845528455284 5.6747967479674 744.5853658536585 15.9837398373984L777.3577235772359 48.7479674796748C798.6829268292684 70.0731707317074 798.6829268292684 104.7886178861788 777.3577235772359 126.1056910569106L403.6747967479677 499.7886178861788z" />
    <glyph glyph-name="linkedin"
      unicode="&#xEA06;"
      horiz-adv-x="937.5" d="M213.005 660.5225H11.5904375V55.66875H213.005V660.5225zM874.025 605.27875C831.71875 651.46375 775.7624999999999 674.5606250000001 706.1874999999999 674.5606250000001C680.55 674.5606250000001 657.25 671.4075 636.2875 665.09625C615.3375 658.79 597.640625 649.941875 583.19125 638.546875C568.750625 627.1524999999999 557.249375 616.575 548.7106249999999 606.81375C540.59125 597.541875 532.6518749999999 586.741875 524.904375 574.524375V660.5325H324.090625L324.7062500000001 631.231875C325.11875 611.694375 325.321875 551.476875 325.321875 450.5706249999999C325.321875 349.65625 324.915625 218.025 324.09875 55.66875H524.904375V393.2025C524.904375 413.9500000000001 527.13 430.42625 531.615 442.64375C540.16625 463.4056250000001 553.071875 480.788125 570.3749999999999 494.820625C587.67625 508.870625 609.1331250000001 515.8887500000001 634.775 515.8887500000001C669.75625 515.8887500000001 695.5062499999999 503.784375 711.9875 479.57375C728.4625 455.365625 736.6999999999999 421.89625 736.6999999999999 379.17V55.69375H937.50625V402.348125C937.49375 491.46875 916.35 559.10875 874.025 605.27875zM113.516875 951.660125C79.74875 951.660125 52.3868125 941.7856875 31.42575 922.055625C10.4668125 902.321875 -0.00625 877.408125 -0.00625 847.290625C-0.00625 817.594375 10.165375 792.76625 30.51075 772.833125C50.84975 752.8981249999999 77.70875 742.925625 111.07375 742.925625H112.294375C146.4775 742.925625 174.04875 752.89 195.00125 772.833125C215.95375 792.76625 226.225625 817.585625 225.821875 847.290625C225.415625 877.405625 215.0325 902.321875 194.693125 922.055625C174.356875 941.7941875 147.288125 951.660125 113.516875 951.660125z" />
    <glyph glyph-name="marker"
      unicode="&#xEA07;"
      horiz-adv-x="796.7479674796749" d="M398.3601626016262 896.1512195121951C237.108130081301 896.1512195121951 105.9048780487806 764.9479674796747 105.9048780487806 603.6796747967479C105.9048780487806 561.6146341463414 114.5146341463415 521.4520325203251 131.4821138211384 484.2975609756097C204.6040650406506 324.2894308943089 344.7991869918701 155.3577235772357 386.0349593495937 107.3983739837397C389.1243902439026 103.8130081300812 393.628455284553 101.7479674796747 398.368292682927 101.7479674796747C403.108130081301 101.7479674796747 407.6121951219514 103.8130081300812 410.7016260162603 107.3983739837397C451.9211382113822 155.3495934959349 592.1162601626017 324.2731707317072 665.2626016260165 484.2975609756097C682.238211382114 521.4520325203251 690.8398373983741 561.6146341463414 690.8398373983741 603.6796747967479C690.8235772357725 764.9479674796747 559.6203252032522 896.1512195121951 398.3601626016262 896.1512195121951zM398.3601626016262 451.7691056910569C314.5959349593498 451.7691056910569 246.4414634146343 519.9235772357723 246.4414634146343 603.6878048780487C246.4414634146343 687.460162601626 314.5959349593498 755.6146341463415 398.3601626016262 755.6146341463415C482.1243902439026 755.6146341463415 550.2788617886181 687.460162601626 550.2788617886181 603.6878048780487C550.2869918699188 519.9235772357723 482.1325203252034 451.7691056910569 398.3601626016262 451.7691056910569zM1.1666666666667 896.1512195121951H795.5813008130082V101.7365853658537H1.1666666666667V896.1512195121952z" />
    <glyph glyph-name="next"
      unicode="&#xEA08;"
      horiz-adv-x="1450" d="M1331.25 486.3299999999999L618.75 74.965L618.75 897.69L1331.25 486.3299999999999zM831.25 486.3299999999999L118.75 74.965L118.75 897.69L831.25 486.3299999999999z" />
    <glyph glyph-name="ntr"
      unicode="&#xEA09;"
      horiz-adv-x="983.0508474576271" d="M63.4269491525423 585.3389830508474H253.6949152542373V395.071186440678H63.4269491525423V585.3389830508474zM63.4269491525423 315.7915254237288H253.6949152542373V125.5237288135593H63.4269491525423V315.7915254237288zM475.6745762711864 680.4711864406779H63.4269491525423V839.0286440677966H475.6745762711864V680.4711864406779zM698.6474576271187 490.2050847457627C708.0694915254237 490.2050847457627 717.1813559322034 487.4474576271186 725.0322033898306 482.2152542372881L835.7661016949153 408.3864406779661C848.8508474576272 399.6847457627119 864.0559322033898 395.071186440678 879.7491525423729 395.071186440678H983.0508474576272V426.7813559322034H879.7644067796612C870.3508474576272 426.7813559322034 861.2152542372883 429.5372881355932 853.3644067796611 434.7711864406779L808.6389830508474 464.5932203389831V997.5854915254238H206.1237288135594V902.4515254237288H-1e-13V14.5338983050847H602.5152542372882V109.6677966101694H808.6389830508474V243.064406779661C809.6372881355933 243.3033898305084 810.6677966101695 243.3813559322033 811.6661016949154 243.6203389830509L885.4237288135594 262.0542372881355C901.7898305084746 266.1508474576271 918.6288135593222 268.2254237288135 935.484745762712 268.2254237288135H983.0508474576272V299.9372881355933H935.484745762712C916.04406779661 299.9372881355933 896.6033898305084 297.5440677966102 877.7355932203391 292.828813559322L803.9779661016948 274.3949152542373C766.0644067796611 264.9271186440677 725.7135593220339 266.4677966101695 688.6762711864408 278.8169491525424L661.957627118644 287.7271186440678C637.6322033898305 295.8338983050848 612.3016949152541 299.9372881355933 586.6593220338984 299.9372881355933H448.3016949152543C448.3016949152543 326.1593220338983 469.6457627118643 347.5033898305084 495.8694915254238 347.5033898305084H670.2813559322033C696.5101694915254 347.5033898305084 717.8474576271187 368.8474576271186 717.8474576271187 395.071186440678C717.8474576271187 419.3966101694915 699.422033898305 439.2779661016949 675.8474576271187 442.0796610169492L688.8610169491526 490.2050847457627H698.6474576271187zM678.6186440677966 248.7389830508474C702.9440677966102 240.6169491525423 728.284745762712 236.5135593220339 753.9186440677965 236.5135593220339C761.613559322034 236.5135593220339 769.2864406779661 237.1796610169492 776.9271186440678 237.9237288135593V141.3796610169491H602.5152542372882V193.2440677966101C608.0813559322035 199.6610169491526 612.3932203389829 207.2559322033898 614.7084745762711 215.8508474576271L627.6915254237288 263.9440677966101C635.8593220338983 262.2796610169491 643.957627118644 260.2966101694915 651.9084745762711 257.6338983050847L678.6186440677966 248.7389830508474zM595.9186440677965 267.8610169491525L584.1050847457627 224.1338983050847C581.0305084745762 212.7457627118644 570.6491525423728 204.8033898305084 558.8661016949152 204.8033898305084H553.7254237288137C539.3169491525423 204.8033898305084 527.5949152542373 216.5169491525424 527.5949152542373 230.9322033898304C527.5949152542373 233.2474576271186 527.8966101694916 235.5305084745762 528.5016949152541 237.7525423728813L536.7305084745763 268.2254237288135H586.6593220338984C589.7491525423729 268.2254237288135 592.8305084745762 267.9847457627119 595.9186440677965 267.8610169491525zM503.8745762711865 268.2254237288135L497.8813559322033 246.0440677966101C496.5491525423728 241.128813559322 495.8847457627118 236.057627118644 495.8847457627118 230.9322033898304C495.8847457627118 209.4949152542372 507.7457627118644 190.9593220338982 525.1101694915253 180.9728813559322L520.1322033898305 161.0915254237288L550.8915254237288 153.3949152542373L555.8237288135592 173.0915254237289H558.8661016949152C562.9525423728812 173.0915254237289 566.9169491525422 173.664406779661 570.8033898305084 174.4847457627119V46.2457627118642H31.7113559322033V870.7401694915254H237.835593220339V965.8742372881356H776.9271186440678V485.728813559322L742.6305084745761 508.6C729.5542372881357 517.3016949152543 714.3491525423728 521.9152542372881 698.6474576271187 521.9152542372881H697.4237288135594L763.4169491525424 766.0762711864406C764.7491525423727 770.9915254237288 765.4152542372881 776.0627118644068 765.4152542372881 781.1881355932203C765.4152542372881 813.0847457627118 739.464406779661 839.0289830508475 707.5745762711863 839.0289830508475H702.4338983050848C676.3576271186439 839.0289830508475 653.3949152542373 821.4474576271186 646.5898305084745 796.2694915254237L602.5152542372882 633.1762711864405V902.4515254237288H269.5457627118645V870.7401694915254H570.8033898305084V521.9152542372881H538C520.7440677966101 521.9152542372881 504.4932203389831 516.1949152542372 490.906779661017 506.0593220338983H332.9694915254238V474.3491525423728H457.5915254237289L425.8813559322034 442.6372881355932H332.9694915254238V410.9254237288135H394.184745762712L367.6915254237288 384.4322033898304C358.3389830508475 375.0966101694915 353.1830508474577 362.6627118644068 353.1830508474577 349.4237288135593C353.1830508474577 322.1322033898305 375.3796610169492 299.9372881355933 402.6864406779661 299.9372881355933C407.571186440678 299.9372881355933 412.2779661016949 300.8728813559321 416.8457627118645 302.2355932203389C416.8305084745762 301.4610169491525 416.6050847457627 300.7254237288136 416.6050847457627 299.9372881355933C416.6050847457627 282.4474576271187 430.8271186440679 268.2254237288135 448.3169491525424 268.2254237288135H503.8745762711865zM626.0118644067795 379.2152542372881H566.7322033898304L633.6847457627118 626.9440677966102L688.0728813559322 608.8203389830508L626.0118644067795 379.2152542372881zM504.3694915254238 476.2847457627119C513.2338983050847 485.1338983050847 525.4898305084746 490.2050847457627 538 490.2050847457627H563.8745762711865L550.9372881355932 442.3508474576271C530.8779661016949 441.6237288135593 512.0728813559322 433.6949152542373 497.8033898305084 419.4271186440679L415.2440677966103 336.8661016949153C411.9305084745763 333.5525423728814 407.3457627118645 331.6474576271187 402.6694915254237 331.6474576271187C392.8525423728813 331.6474576271187 384.8796610169492 339.6220338983051 384.8796610169492 349.4237288135593C384.8796610169492 354.1779661016949 386.7372881355933 358.6372881355932 390.0966101694916 361.9966101694914L504.3694915254238 476.2847457627119zM520.2254237288134 397.006779661017C526.2169491525424 402.9983050847457 533.8440677966103 407.0864406779661 541.9796610169492 409.2152542372882L533.8745762711865 379.2152542372881H502.4491525423728L520.2254237288134 397.006779661017zM732.7983050847458 774.3525423728813L713.3813559322034 702.5135593220339L658.9932203389831 720.6372881355933L677.1949152542372 787.9864406779661C680.2830508474576 799.3745762711865 690.6576271186441 807.3169491525424 702.4338983050848 807.3169491525424H707.5745762711863C721.9898305084746 807.3169491525424 733.7033898305085 795.6033898305085 733.7033898305085 781.1881355932203C733.7033898305085 778.8728813559321 733.4016949152542 776.5898305084745 732.7983050847458 774.3525423728813zM650.7169491525424 689.9711864406779L705.1050847457627 671.8474576271186L696.3491525423728 639.4864406779661L641.9610169491525 657.6101694915253L650.7169491525424 689.9711864406779zM670.2813559322033 410.9254237288135C679.0220338983052 410.9254237288135 686.1372881355933 403.8033898305084 686.1372881355933 395.071186440678C686.1372881355933 386.3372881355932 679.0220338983052 379.2152542372881 670.2813559322033 379.2152542372881H658.8542372881357L667.4322033898306 410.9254237288135H670.2813559322033zM126.8372881355932 775.6050847457627H158.5486440677966V743.8949152542373H126.8372881355932V775.6050847457627zM190.2644067796609 775.6050847457627H221.9762711864407V743.8949152542373H190.2644067796609V775.6050847457627zM253.6915254237289 775.6050847457627H285.4016949152543V743.8949152542373H253.6915254237289V775.6050847457627zM317.1186440677967 775.6050847457627H348.8288135593221V743.8949152542373H317.1186440677967V775.6050847457627zM380.5288135593221 775.6050847457627H412.2389830508474V743.8949152542373H380.5288135593221V775.6050847457627zM328.3203389830508 621.6949152542372L305.9000000000001 644.1152542372881L158.5533898305085 496.7694915254237L138.0525423728813 517.2694915254237L115.6316949152543 494.8491525423728L158.5533898305085 451.9271186440677L328.3203389830508 621.6949152542372zM305.9000000000001 374.5694915254237L158.5533898305085 227.2237288135592L138.0525423728813 247.7237288135592L115.6316949152543 225.3033898305086L158.5533898305085 182.3813559322033L328.3203389830508 352.1491525423729L305.9000000000001 374.5694915254237zM507.3813559322035 125.5237288135593H539.093220338983V93.8118644067796H507.3813559322035V125.5237288135593zM301.2610169491525 125.5237288135593H475.6728813559321V93.8118644067796H301.2610169491525V125.5237288135593zM332.9745762711865 569.4830508474577H539.0983050847458V537.7711864406779H332.9745762711865V569.4830508474577z" />
    <glyph glyph-name="phone"
      unicode="&#xEA0A;"
      horiz-adv-x="1076.923076923077" d="M1038.4617234615384 210.8076923076924C1040.577108076923 194.5615384615385 1035.6309542307692 180.4384615384617 1023.6309542307692 168.4307692307693L882.7386465384616 28.6076923076923C876.3848003846155 21.5461538461539 868.0848003846154 15.5384615384615 857.8463388461538 10.6C847.6078773076923 5.6538461538462 837.5463388461538 2.4769230769231 827.6617234615385 1.0692307692308C826.9540311538462 1.0692307692308 824.8309542307692 0.8846153846154 821.300185 0.5307692307692C817.7694157692308 0.1769230769231 813.1848003846154 0 807.5309542307692 0C794.1117234615384 0 772.3940311538461 2.2923076923078 742.3794157692308 6.8846153846154C712.3655696153846 11.4769230769232 675.6440311538462 22.776923076923 632.2155696153847 40.7846153846155C588.7763388461539 58.7923076923078 539.520185 85.8076923076924 484.4371080769232 121.823076923077C429.3540311538462 157.8384615384616 370.7363388461539 207.276923076923 308.5894157692308 270.1284615384616C259.1548003846155 318.8569230769231 218.1940311538462 365.4669230769231 185.7086465384616 409.9569230769231C153.2224926923077 454.45 127.0924926923077 495.5869230769231 107.3188773076923 533.3692307692309C87.543185 571.1515384615385 72.7127234615385 605.4030769230769 62.8257234615385 636.1238461538462C52.9387234615385 666.8438461538461 46.2297234615385 693.3269230769231 42.6986311538462 715.5723076923077C39.1675696153846 737.8184615384615 37.7551403846154 755.2969230769231 38.4613534615385 768.0092307692307C39.1675696153846 780.7207692307693 39.5206773076923 787.7830769230769 39.5206773076923 789.1953846153847C40.9331003846154 799.0823076923077 44.1110619230769 809.1461538461539 49.0545696153846 819.3861538461538C53.9980311538462 829.6261538461539 60.0008773076923 837.9238461538462 67.0630311538462 844.28L207.9524926923077 985.1695384615384C217.8394157692308 995.0565076923078 229.1386465384616 1000 241.8509542307694 1000C251.0317234615386 1000 259.1532619230769 997.3517 266.2155696153846 992.055076923077C273.2771080769232 986.7584615384616 279.280185 980.226 284.2232619230769 972.4576923076924L397.5709542307694 757.4153846153846C403.9271080769232 746.1161538461538 405.6924926923077 733.7576923076923 402.8671080769232 720.3392307692308C400.0424926923078 706.9215384615384 394.0401850000001 695.6223076923077 384.8594157692309 686.4415384615384L332.9524926923077 634.5346153846153C331.5401850000001 633.1223076923077 330.3040311538462 630.8269230769231 329.2448003846154 627.6492307692308C328.1855696153848 624.4707692307693 327.6555696153847 621.823076923077 327.6555696153847 619.7038461538461C330.4809542307694 604.8738461538462 336.8363388461539 587.9246153846154 346.723261923077 568.8569230769231C355.1978773076924 551.9076923076923 368.2632619230771 531.2507692307693 385.9186465384617 506.8861538461539C403.5740311538463 482.5223076923077 428.6440311538463 454.4515384615385 461.130185 422.6723076923078C492.9094157692309 390.1830769230769 521.1578773076923 364.9392307692309 545.8755696153846 346.9276923076924C570.5878773076923 328.9261538461539 591.2517234615385 315.6792307692308 607.8478773076923 307.2046153846154C624.4440311538461 298.73 637.1555696153846 293.61 645.9817234615384 291.85L659.2194157692309 289.1992307692308C660.6317234615385 289.1992307692308 662.9324926923076 289.7307692307693 666.107108076923 290.7884615384617C669.2848003846153 291.85 671.580185 293.0838461538463 672.9940311538462 294.4976923076923L733.3732619230769 355.9384615384617C746.0924926923077 367.2361538461539 760.9163388461538 372.8861538461538 777.8671080769232 372.8861538461538C789.8763388461539 372.8861538461538 799.4048003846154 370.7692307692309 806.4671080769232 366.53H807.5232619230769L1011.9694157692307 245.7676923076923C1026.8078773076923 236.5800000000001 1035.6309542307692 224.9307692307692 1038.4617234615384 210.8076923076924z" />
    <glyph glyph-name="play"
      unicode="&#xEA0B;"
      horiz-adv-x="882.3529411764705" d="M860.2941470588235 513.3270588235293L22.058794117647 29.3705882352942L22.0588529411764 997.2826235294118L860.2941470588235 513.3270588235293z" />
    <glyph glyph-name="prev"
      unicode="&#xEA0C;"
      horiz-adv-x="1450" d="M118.75003114425 486.3299999999999L831.24996885575 897.69L831.24996885575 74.965L118.75003114425 486.3299999999999zM618.74996885575 486.3299999999999L1331.24996885575 897.69L1331.24996885575 74.965L618.74996885575 486.3299999999999z" />
    <glyph glyph-name="review"
      unicode="&#xEA0D;"
      horiz-adv-x="1017.5438596491229" d="M365.6802631578949 458.5754385964912V369.7631578947369C365.6802631578949 364.4052631578947 358.2539473684212 361.321052631579 354.438157894737 365.1035087719297L260.9679824561404 458.5754385964912H95.3942982456141C69.0971052631579 458.5754385964912 47.6969298245614 479.9754385964911 47.6969298245614 506.2719298245614V919.6498245614036C47.6969298245614 945.9470175438596 69.0971052631579 967.3471929824562 95.3942982456141 967.3471929824562H413.3767543859651C439.6732456140353 967.3471929824562 461.0732456140352 945.9470175438596 461.0732456140352 919.6498245614036V522.1719298245614H492.8732456140352V919.6498245614036C492.8732456140352 963.4838596491228 457.2100877192983 999.1455070175438 413.3767543859651 999.1455070175438H95.3942982456141C51.5604385964913 999.1455070175438 15.8986842105263 963.4838596491228 15.8986842105263 919.6498245614036V506.2719298245614C15.8986842105263 462.4385964912281 51.5604385964913 426.7771929824562 95.3942982456141 426.7771929824562H247.8030701754387L331.9574561403511 342.6070175438597C339.1118421052633 335.4842105263157 349.0013157894739 331.3824561403509 359.0978070175439 331.3824561403509C380.259210526316 331.3824561403509 397.476754385965 348.6017543859649 397.476754385965 369.7631578947369V426.7771929824562H508.7714912280703V458.5754385964912H365.6802631578949zM381.57850877193 792.4561403508771H365.6802631578949V852.19C365.6802631578949 879.4250877192983 355.0750000000002 905.038596491228 335.8048245614036 924.3084210526316C328.555701754386 931.5584210526316 318.9206140350879 935.548947368421 308.6644736842107 935.548947368421C287.5030701754387 935.548947368421 270.2837719298247 918.330350877193 270.2837719298247 897.1685964912281V843.9064912280702C270.2837719298247 818.2298245614035 256.0223684210528 795.159649122807 233.0644736842106 783.6649122807017C223.7486842105264 779.0228070175439 213.3346491228071 776.5578947368421 202.936403508772 776.5578947368421H174.8899122807018V808.3561403508772H79.4951754385965V490.3736842105263H174.8899122807018V522.1719298245614H187.036403508772L201.0276315789474 515.1754385964912C212.6504385964913 509.3578947368421 225.6872807017545 506.2719298245614 238.7241228070176 506.2719298245614H381.57850877193C407.8750000000001 506.2719298245614 429.2767543859651 527.6736842105263 429.2767543859651 553.9701754385965C429.2767543859651 566.2280701754385 424.4907894736844 577.3105263157895 416.8750000000001 585.7684210526315C424.5065789473686 594.2263157894736 429.2767543859651 605.3087719298246 429.2767543859651 617.5666666666666C429.2767543859651 629.8245614035087 424.4907894736844 640.9070175438596 416.8750000000001 649.3649122807017C424.5065789473686 657.8228070175438 429.2767543859651 668.9052631578948 429.2767543859651 681.1631578947367C429.2767543859651 693.421052631579 424.4907894736844 704.5035087719298 416.8750000000001 712.9614035087719C424.5065789473686 721.4192982456141 429.2767543859651 732.5017543859649 429.2767543859651 744.759649122807C429.2767543859651 771.0561403508772 407.8750000000001 792.4561403508771 381.57850877193 792.4561403508771zM143.0916666666667 522.1719298245614H111.2934210526316V776.5578947368421H143.0916666666667V522.1719298245614zM381.57850877193 538.0701754385965H238.7241228070176C230.617105263158 538.0701754385965 222.5083333333334 539.9947368421052 215.2574561403509 543.619298245614L194.5416666666667 553.9701754385965H174.8899122807018V744.759649122807H202.936403508772C218.2311403508772 744.759649122807 233.5732456140352 748.3842105263158 247.2785087719299 755.2210526315789C281.0802631578948 772.1385964912281 302.0837719298247 806.1140350877192 302.0837719298247 843.9064912280702V897.1685964912281C302.0837719298247 902.5424561403509 309.5399122807019 905.611052631579 313.3241228070177 901.8270175438596C326.5837719298247 888.5671929824562 333.8802631578949 870.9508771929825 333.8802631578949 852.19V760.6578947368421H381.57850877193C390.3381578947371 760.6578947368421 397.476754385965 753.519298245614 397.476754385965 744.759649122807C397.476754385965 736 390.3381578947371 728.859649122807 381.57850877193 728.859649122807H333.8802631578949V697.061403508772H381.57850877193C390.3381578947371 697.061403508772 397.476754385965 689.9228070175438 397.476754385965 681.1631578947367C397.476754385965 672.4035087719299 390.3381578947371 665.2631578947369 381.57850877193 665.2631578947369H333.8802631578949V633.4649122807018H381.57850877193C390.3381578947371 633.4649122807018 397.476754385965 626.3263157894737 397.476754385965 617.5666666666666C397.476754385965 608.8070175438597 390.3381578947371 601.6666666666667 381.57850877193 601.6666666666667H333.8802631578949V569.8684210526316H381.57850877193C390.3381578947371 569.8684210526316 397.476754385965 562.7298245614036 397.476754385965 553.9701754385965C397.476754385965 545.2105263157895 390.3381578947371 538.0701754385965 381.57850877193 538.0701754385965zM667.7627192982457 744.759649122807C553.6065789473685 744.759649122807 461.0732456140352 652.2263157894736 461.0732456140352 538.0701754385965V522.1719298245614C461.0732456140352 444.9824561403509 507.0065789473686 378.6666666666667 572.9399122807018 348.6175438596491C542.4942982456141 385.3280701754386 524.6697368421053 432.1824561403509 524.6697368421053 482.217543859649V538.0701754385965L572.3679824561405 585.7684210526315C613.6416666666668 554.8122807017544 663.8521929824561 538.0701754385965 715.4592105263158 538.0701754385965H810.855701754386V482.217543859649C810.855701754386 432.1982456140351 793.0311403508773 385.3280701754386 762.5855263157895 348.6175438596491C828.5188596491229 378.6666666666667 874.4521929824563 444.9824561403509 874.4521929824563 522.1719298245614V538.0701754385965C874.4521929824563 652.2263157894736 781.9188596491229 744.759649122807 667.7627192982457 744.759649122807zM215.7346491228071 106.1859649122806L190.7890350877194 124.978947368421L165.8427192982457 106.1859649122806L157.1300877192983 110.3508771929824C147.5111403508772 114.9456140350877 138.9572807017544 121.4017543859649 131.7232456140351 129.5578947368421L125.7611403508772 136.2824561403508L135.316403508772 166.7771929824561L110.4025438596492 185.5543859649122L111.4041228070176 194.5526315789473C112.6283333333334 205.6035087719298 116.5713157894737 218.3070175438596 121.6750000000001 227.7017543859648L126.2221929824562 236.0491228070175L156.6690350877194 235.9070175438597L166.0176315789474 264.2701754385965L175.0325438596492 266.1315789473684C185.636403508772 268.3087719298245 195.955701754386 268.3087719298245 206.5609649122807 266.1315789473684L215.5118421052632 264.2859649122808L225.0662280701755 235.8754385964911L253.6855263157895 236.0964912280702L258.2486842105265 227.7192982456139C265.1486842105265 215.0157894736841 269.1557017543862 203.8701754385965 270.1890350877195 194.5526315789473L271.1907894736844 185.5543859649122L246.276754385965 166.7771929824561L255.8311403508773 136.2824561403508L249.8539473684211 129.5578947368421C242.6188596491229 121.4017543859649 234.0662280701755 114.9456140350877 224.4469298245615 110.3508771929824L215.7346491228071 106.1859649122806zM884.9609649122807 224.8263157894736L752.5679824561404 271.5543859649123C740.8188596491228 275.6877192982455 732.9644736842107 286.4035087719299 731.8206140350877 298.6298245614036C790.2978070175438 340.0631578947369 826.7539473684211 407.7929824561403 826.7539473684211 482.217543859649V553.9701754385965H715.4592105263158C667.6188596491228 553.9701754385965 620.1925438596492 569.7894736842105 581.9065789473685 598.4877192982456L570.8732456140351 606.7701754385964L508.7714912280703 544.6526315789474V482.217543859649C508.7714912280703 407.7929824561403 545.2276315789474 340.0631578947369 603.7048245614036 298.6298245614036C602.5609649122807 286.4035087719299 594.6907894736842 275.6877192982455 582.9416666666667 271.5543859649123L450.5486842105265 224.8263157894736C415.4276315789475 212.4245614035086 386.1258771929826 189.4666666666666 365.6627192982458 160.3070175438596V251.8859649122807C365.6627192982458 295.7210526315789 330.0013157894737 331.3824561403509 286.1679824561404 331.3824561403509H254.3697368421053V356.598245614035C254.3855263157895 377.759649122807 237.1662280701755 394.978947368421 216.0048245614036 394.978947368421C205.9083333333334 394.978947368421 196.0206140350878 390.8771929824561 188.8644736842106 383.738596491228L136.5093859649123 331.3824561403509H95.3942982456141C51.5604385964913 331.3824561403509 15.8986842105263 295.7210526315789 15.8986842105263 251.8859649122807V124.6929824561403C15.8986842105263 80.859649122807 51.5604385964913 45.198245614035 95.3942982456141 45.198245614035H286.1837719298248C304.1820175438598 45.198245614035 320.6048245614037 51.4298245614034 333.9451754385966 61.5578947368421C333.9451754385966 61.0017543859649 333.8802631578949 60.4614035087719 333.8802631578949 59.9052631578946V13.4H1001.6451754385967V59.9052631578946C1001.6451754385967 133.9157894736842 954.757456140351 200.1824561403508 884.9609649122807 224.8263157894736zM333.8802631578949 124.6929824561403C333.8802631578949 98.3964912280702 312.4802631578949 76.9964912280701 286.1837719298248 76.9964912280701H95.3942982456141C69.0971052631579 76.9964912280701 47.6969298245614 98.3964912280702 47.6969298245614 124.6929824561403V251.8859649122807C47.6969298245614 278.1842105263157 69.0971052631579 299.5842105263158 95.3942982456141 299.5842105263158H149.6739473684211L211.3311403508772 361.2403508771929C215.1627192982457 365.0877192982456 222.5872807017544 361.9561403508772 222.5872807017544 356.598245614035V299.5842105263158H286.1837719298248C312.4802631578949 299.5842105263158 333.8802631578949 278.1842105263157 333.8802631578949 251.8859649122807V124.6929824561403zM743.1241228070176 241.1701754385964L751.7258771929825 238.1333333333332L736.3837719298247 153.7736842105262L691.5644736842105 189.6263157894737L743.1241228070176 241.1701754385964zM667.7627192982457 210.7719298245614L619.4925438596492 259.040350877193C625.2802631578948 265.4649122807017 629.7802631578948 273 632.5785087719299 281.2526315789474C642.2293859649124 276.4035087719299 652.2609649122808 272.0947368421053 662.7381578947369 268.6122807017543L667.7627192982457 266.9263157894736L672.7872807017544 268.5964912280702C683.2644736842107 272.0947368421053 693.296052631579 276.3877192982456 702.9469298245614 281.2368421052631C705.7451754385966 272.9842105263157 710.2293859649124 265.4649122807017 716.0328947368421 259.0245614035088L667.7627192982457 210.7719298245614zM540.5697368421053 482.217543859649V531.4877192982456L574.1328947368421 565.0508771929824C615.7416666666667 537.3228070175439 665.4100877192983 522.1719298245614 715.4592105263158 522.1719298245614H794.955701754386V482.217543859649C794.955701754386 400.638596491228 744.0627192982457 328.2824561403509 667.7627192982457 300.5052631578947C591.4627192982457 328.2982456140351 540.5697368421053 400.638596491228 540.5697368421053 482.217543859649zM592.4013157894738 241.1701754385964L643.9609649122808 189.6105263157895L599.1416666666667 153.7578947368421L583.7995614035088 238.117543859649L592.4013157894738 241.1701754385964zM969.8451754385966 45.198245614035H874.4521929824563V108.7947368421053H842.6521929824562V45.198245614035H492.8732456140352V108.7947368421053H461.0732456140352V45.198245614035H365.6802631578949V59.9052631578946C365.6802631578949 120.4649122807017 404.0434210526318 174.680701754386 461.1539473684211 194.8245614035087L553.4328947368422 227.4017543859649L577.3925438596492 95.6298245614034L667.7627192982457 167.9228070175437L758.1328947368421 95.6298245614034L782.0925438596493 227.4017543859649L874.3714912280702 194.8245614035087C931.4820175438598 174.680701754386 969.8451754385966 120.4491228070175 969.8451754385966 59.9052631578946V45.198245614035z" />
    <glyph glyph-name="right"
      unicode="&#xEA0E;"
      horiz-adv-x="1000.0000000000001" d="M596.4430894308944 500.2032520325203L222.2560975609757 126.0162601626015C211.8902439024391 115.6504065040649 206.19918699187 102.0325203252031 206.19918699187 87.3983739837397C206.19918699187 72.7642276422764 211.8902439024391 58.9430894308943 222.2560975609757 48.780487804878L254.9796747967481 16.0569105691055C265.3455284552846 5.6910569105689 278.9634146341465 -1e-13 293.5975609756099 -1e-13S322.0528455284554 5.691056910569 332.2154471544717 16.0569105691055L777.9471544715448 461.3821138211382C788.3130081300814 471.7479674796748 794.0040650406504 485.5691056910568 793.8008130081301 500.2032520325203C793.8008130081301 514.8373983739837 788.109756097561 528.6585365853658 777.9471544715448 539.0243902439024L332.8252032520326 983.9430894308944C322.459349593496 994.3089430894308 308.8414634146342 1000 294.2073170731708 1000C279.5731707317074 1000 265.7520325203252 994.3089430894308 255.589430894309 983.9430894308944L222.6626016260163 951.219512195122C201.3211382113822 929.8780487804878 201.3211382113822 895.1219512195122 222.6626016260163 873.9837398373984L596.4430894308944 500.2032520325203z" />
    <glyph glyph-name="search"
      unicode="&#xEA0F;"
      horiz-adv-x="999.9999999999999" d="M995.564699736842 51.0000000000001L752.5489102631578 294.0157894736842C817.7383839473684 368.9578947368422 857.206805 466.7421052631579 857.206805 573.6142105263158C857.206805 808.868947368421 665.8541734210527 1000 430.8210155263158 1000C195.5662786842105 1000 4.4353002631579 808.6473684210526 4.4353002631579 573.6142105263158C4.4353002631579 338.5789473684211 195.7878576315789 147.2263157894737 430.8210155263158 147.2263157894737C537.6962786842105 147.2263157894737 635.4752260526316 186.6947368421053 710.4225944736842 251.8842105263159L953.4383839473684 8.8684210526317C959.2015418421051 3.1052631578949 966.964699736842 1e-13 974.5015418421052 1e-13C982.0383839473682 1e-13 989.8015418421052 2.8842105263159 995.564699736842 8.8684210526317C1007.0962786842106 20.4 1007.0962786842106 39.4684210526317 995.564699736842 51.0000000000001zM64.0804892105263 573.6142105263158C64.0804892105263 775.8315789473685 228.6036471052631 940.1331578947368 430.5994365789474 940.1331578947368C632.8173313157895 940.1331578947368 797.1173313157894 775.61 797.1173313157894 573.6142105263158C797.1173313157894 371.621052631579 632.8173313157895 206.8736842105263 430.5994365789474 206.8736842105263C228.6036471052631 206.8736842105263 64.0804892105263 371.3947368421053 64.0804892105263 573.6142105263158z" />
    <glyph glyph-name="twitter"
      unicode="&#xEA10;"
      horiz-adv-x="1142.857142857143" d="M1142.857142857143 870.54C1100.357142857143 851.8971428571429 1055.0714285714287 839.54 1007.8571428571428 833.54C1056.4285714285713 862.54 1093.5 908.1114285714286 1110.9285714285716 963.0402142857142C1065.642857142857 936.0402142857142 1015.6428571428572 916.9685714285714 962.3571428571428 906.3257142857142C919.3571428571428 952.1115714285714 858.0714285714286 980.4687142857144 791.2142857142858 980.4687142857144C661.5 980.4687142857144 557.0714285714287 875.1828571428571 557.0714285714287 746.1114285714285C557.0714285714287 727.54 558.6428571428571 709.6828571428571 562.5 692.6828571428571C367.7142857142857 702.1828571428571 195.3571428571429 795.54 79.5714285714286 937.7544285714285C59.3571428571429 902.682857142857 47.5 862.54 47.5 819.3257142857143C47.5 738.1828571428571 89.2857142857143 666.2542857142857 151.5714285714286 624.6114285714286C113.9285714285714 625.3257142857142 77 636.2542857142857 45.7142857142857 653.4685714285714C45.7142857142857 652.7542857142857 45.7142857142857 651.8257142857143 45.7142857142857 650.8971428571429C45.7142857142857 537.04 126.9285714285714 442.4685714285714 233.4285714285714 420.6828571428571C214.3571428571429 415.4685714285715 193.5714285714286 412.9685714285714 172 412.9685714285714C157 412.9685714285714 141.8571428571429 413.8257142857142 127.6428571428572 416.9685714285714C158 324.1828571428572 244.1428571428572 255.9714285714287 346.5714285714286 253.7571428571429C266.8571428571429 191.4 165.6428571428572 153.8285714285714 56.0714285714286 153.8285714285714C36.8571428571429 153.8285714285714 18.4285714285714 154.6857142857142 0 157.0428571428572C103.7857142857143 90.1142857142856 226.7857142857143 51.9 359.4285714285715 51.9C790.5714285714286 51.9 1026.2857142857144 409.04 1026.2857142857144 718.6114285714286C1026.2857142857144 728.9685714285714 1025.9285714285713 738.9685714285714 1025.4285714285716 748.8971428571429C1071.9285714285713 781.8971428571429 1111 823.1114285714285 1142.857142857143 870.54z" />
  </font>
</defs>
</svg>
